trace/trace.vcd
$version Generated by VerilatedVcd $end
$date Tue Apr 10 15:08:00 2018
 $end
$timescale 1ns $end

 $scope module TOP $end
  $var wire 32 Q i_ReadData [31:0] $end
  $var wire  1 O i_clk $end
  $var wire  1 P i_reset $end
  $var wire 32 T o_Address [31:0] $end
  $var wire 32 S o_WriteData [31:0] $end
  $var wire  1 R o_memwrite $end
  $scope module v $end
   $var wire 32 U WIDTH [31:0] $end
   $var wire  3 5 alucontrol [2:0] $end
   $var wire  1 , alusrca $end
   $var wire  2 4 alusrcb [1:0] $end
   $var wire  6 C funct [5:0] $end
   $var wire 32 Q i_ReadData [31:0] $end
   $var wire  1 O i_clk $end
   $var wire  1 P i_reset $end
   $var wire  1 . instrwrite $end
   $var wire  1 2 iord $end
   $var wire  1 - memtoreg $end
   $var wire 32 T o_Address [31:0] $end
   $var wire 32 S o_WriteData [31:0] $end
   $var wire  1 R o_memwrite $end
   $var wire  6 D op [5:0] $end
   $var wire  1 / pcen $end
   $var wire  2 3 pcsrc [1:0] $end
   $var wire  1 1 regdst $end
   $var wire  1 0 regwrite $end
   $var wire  1 + zero $end
   $scope module controller_0 $end
    $var wire  2 ? aluop [1:0] $end
    $var wire  1 @ branch $end
    $var wire  1 O i_clk $end
    $var wire  6 C i_funct [5:0] $end
    $var wire  6 D i_op [5:0] $end
    $var wire  1 P i_reset $end
    $var wire  1 + i_zero $end
    $var wire  3 5 o_alucontrol [2:0] $end
    $var wire  1 , o_alusrca $end
    $var wire  2 4 o_alusrcb [1:0] $end
    $var wire  1 . o_instrwrite $end
    $var wire  1 2 o_iord $end
    $var wire  1 - o_memtoreg $end
    $var wire  1 R o_memwrite $end
    $var wire  1 / o_pcen $end
    $var wire  2 3 o_pcsrc [1:0] $end
    $var wire  1 1 o_regdst $end
    $var wire  1 0 o_regwrite $end
    $var wire  1 A pcwrite $end
    $scope module aludec $end
     $var wire  2 ? i_aluop [1:0] $end
     $var wire  6 C i_funct [5:0] $end
     $var wire  3 5 o_alucontrol [2:0] $end
    $upscope $end
    $scope module fsm $end
     $var wire  1 O i_clk $end
     $var wire  6 D i_op [5:0] $end
     $var wire  1 P i_reset $end
     $var wire  4 B nextstate [3:0] $end
     $var wire  2 ? o_aluop [1:0] $end
     $var wire  1 , o_alusrca $end
     $var wire  2 4 o_alusrcb [1:0] $end
     $var wire  1 @ o_branch $end
     $var wire  1 . o_instrwrite $end
     $var wire  1 2 o_iord $end
     $var wire  1 - o_memtoreg $end
     $var wire  1 R o_memwrite $end
     $var wire  2 3 o_pcsrc [1:0] $end
     $var wire  1 A o_pcwrite $end
     $var wire  1 1 o_regdst $end
     $var wire  1 0 o_regwrite $end
     $var wire  4 N state [3:0] $end
    $upscope $end
   $upscope $end
   $scope module datapath_0 $end
    $var wire 32 J ALUout [31:0] $end
    $var wire 32 9 ALUresult [31:0] $end
    $var wire 32 7 AluA [31:0] $end
    $var wire 32 8 AluB [31:0] $end
    $var wire 32 I Imm [31:0] $end
    $var wire 32 K PC [31:0] $end
    $var wire 32 G RegA [31:0] $end
    $var wire  5 E RegA_addr [4:0] $end
    $var wire 32 H RegB [31:0] $end
    $var wire  5 F RegB_addr [4:0] $end
    $var wire  5 6 RegD_addr [4:0] $end
    $var wire 32 U WIDTH [31:0] $end
    $var wire  1 , i_AluSrcA $end
    $var wire  2 4 i_AluSrcB [1:0] $end
    $var wire  1 2 i_IorD $end
    $var wire 32 Q i_Memdata [31:0] $end
    $var wire  1 / i_PCen $end
    $var wire  2 3 i_PCsrc [1:0] $end
    $var wire  3 5 i_alucontrol [2:0] $end
    $var wire  1 O i_clk $end
    $var wire  1 . i_instrwrite $end
    $var wire  1 - i_memtoreg $end
    $var wire  1 1 i_regdst $end
    $var wire  1 0 i_regwrite $end
    $var wire  1 P i_reset $end
    $var wire 32 T o_Address [31:0] $end
    $var wire 32 S o_WriteData [31:0] $end
    $var wire  6 C o_funct [5:0] $end
    $var wire  6 D o_op [5:0] $end
    $var wire  1 + o_zero $end
    $scope module alu $end
     $var wire 32 U WIDTH [31:0] $end
     $var wire 32 ; andresult [31:0] $end
     $var wire 32 : b2 [31:0] $end
     $var wire 32 7 i_a [31:0] $end
     $var wire  3 5 i_alucontrol [2:0] $end
     $var wire 32 8 i_b [31:0] $end
     $var wire 32 9 o_result [31:0] $end
     $var wire  1 + o_zero $end
     $var wire 32 < orresult [31:0] $end
     $var wire 32 > sltresult [31:0] $end
     $var wire 32 = sumresult [31:0] $end
    $upscope $end
    $scope module alu_mux $end
     $var wire 32 U WIDTH [31:0] $end
     $var wire  1 , i_AluSrcA $end
     $var wire  2 4 i_AluSrcB [1:0] $end
     $var wire 32 I i_Imm [31:0] $end
     $var wire 32 K i_PC [31:0] $end
     $var wire 32 G i_RegA [31:0] $end
     $var wire 32 H i_RegB [31:0] $end
     $var wire 32 I imm_shift [31:0] $end
     $var wire 32 7 o_AluA [31:0] $end
     $var wire 32 8 o_AluB [31:0] $end
    $upscope $end
    $scope module instr_decoder $end
     $var wire 32 U WIDTH [31:0] $end
     $var wire 32 Q i_Memdata [31:0] $end
     $var wire  1 O i_clk $end
     $var wire  1 . i_instrwrite $end
     $var wire  1 1 i_regdst $end
     $var wire  1 P i_reset $end
     $var wire 32 M instruction [31:0] $end
     $var wire 32 I o_Imm [31:0] $end
     $var wire  5 E o_RegA_addr [4:0] $end
     $var wire  5 F o_RegB_addr [4:0] $end
     $var wire  5 6 o_RegD_addr [4:0] $end
     $var wire  6 C o_funct [5:0] $end
     $var wire  6 D o_op [5:0] $end
    $upscope $end
    $scope module pc_decoder $end
     $var wire 32 J ALU_sig [31:0] $end
     $var wire 32 U WIDTH [31:0] $end
     $var wire 32 9 i_ALUresult [31:0] $end
     $var wire 32 I i_Imm [31:0] $end
     $var wire  1 2 i_IorD $end
     $var wire  1 / i_PCen $end
     $var wire  2 3 i_PCsrc [1:0] $end
     $var wire  1 O i_clk $end
     $var wire  1 P i_reset $end
     $var wire 32 J o_ALUout [31:0] $end
     $var wire 32 T o_Address [31:0] $end
     $var wire 32 K o_PC [31:0] $end
    $upscope $end
    $scope module registers $end
     $var wire 32 L Data [31:0] $end
     $var wire 32 # RegTable(0) [31:0] $end
     $var wire 32 $ RegTable(1) [31:0] $end
     $var wire 32 % RegTable(2) [31:0] $end
     $var wire 32 & RegTable(3) [31:0] $end
     $var wire 32 ' RegTable(4) [31:0] $end
     $var wire 32 ( RegTable(5) [31:0] $end
     $var wire 32 ) RegTable(6) [31:0] $end
     $var wire 32 * RegTable(7) [31:0] $end
     $var wire 32 U WIDTH [31:0] $end
     $var wire 32 J i_ALUout [31:0] $end
     $var wire 32 Q i_Memdata [31:0] $end
     $var wire  5 E i_RegA_addr [4:0] $end
     $var wire  5 F i_RegB_addr [4:0] $end
     $var wire  5 6 i_RegD_addr [4:0] $end
     $var wire  1 O i_clk $end
     $var wire  1 - i_memtoreg $end
     $var wire  1 0 i_regwrite $end
     $var wire  1 P i_reset $end
     $var wire 32 G o_RegA [31:0] $end
     $var wire 32 H o_RegB [31:0] $end
    $upscope $end
   $upscope $end
  $upscope $end
 $upscope $end
$enddefinitions $end


#8
b00000000000000000000000000000000 #
b00000000000000000000000000000000 $
b00000000000000000000000000000000 %
b00000000000000000000000000000000 &
b00000000000000000000000000000000 '
b00000000000000000000000000000000 (
b00000000000000000000000000000000 )
b00000000000000000000000000000000 *
b00000 6
b00000000000000000000000000000001 9
b00000000000000000000000000000001 :
b00000000000000000000000000000000 ;
b00000000000000000000000000000001 <
b00000000000000000000000000000001 =
b00000000000000000000000000000000 >
b00000000000000000000000000000000 7
b00000000000000000000000000000001 8
0+
1/
0@
1A
b010 5
0,
0-
1.
02
00
01
b00 3
b01 4
b00 ?
b0000 B
b00000000000000000000000000000000 L
b00000 E
b00000 F
b00000000000000000000000000000000 M
b00000000000000000000000000000000 J
b00000000000000000000000000000000 K
b00000000000000000000000000000000 G
b00000000000000000000000000000000 H
b00000000000000000000000000000000 I
b000000 C
b000000 D
b0000 N
b00000000000000000000000000000000 S
b00000000000000000000000000000000 Q
b00000000000000000000000000000000 T
0O
1P
0R
b00000000000000000000000000100000 U
#10
1O
#15
0O
#18
b0010 B
b10000000000000100000000000010001 Q
0P
#20
b00010 6
b00000000000000000000000000010010 9
b00000000000000000000000000010001 :
b00000000000000000000000000000001 ;
b00000000000000000000000000010001 <
b00000000000000000000000000010010 =
b00000000000000000000000000000001 7
b00000000000000000000000000010001 8
0/
0A
0.
b11 4
b0011 B
b10000000000000100000000000010001 L
b00010 F
b10000000000000100000000000010001 M
b00000000000000000000000000000001 J
b00000000000000000000000000000001 K
b00000000000000000000000000010001 I
b010001 C
b100000 D
b0010 N
b00000000000000000000000000000001 T
1O
#25
0O
#28
b10000000000001110000000000010000 Q
#30
b00000000000000000000000000010001 9
b00000000000000000000000000000000 ;
b00000000000000000000000000010001 =
b00000000000000000000000000000000 7
1,
b10 4
b0100 B
b10000000000001110000000000010000 L
b00000000000000000000000000010010 J
b0011 N
1O
#35
0O
#38
#40
b00000000000000000000000000000001 9
b00000000000000000000000000000000 :
b00000000000000000000000000000001 <
b00000000000000000000000000000001 =
b00000000000000000000000000000001 7
b00000000000000000000000000000000 8
0,
12
b00 4
b0101 B
b00000000000000000000000000010001 J
b0100 N
b00000000000000000000000000010001 T
1O
#45
0O
#48
b00000000000000000000000000000101 Q
#50
1-
02
10
b0001 B
b00000000000000000000000000000101 L
b00000000000000000000000000000001 J
b0101 N
b00000000000000000000000000000001 T
1O
#55
0O
#58
b10000000000001110000000000010000 Q
#60
b00000000000000000000000000000101 %
b00000000000000000000000000000010 9
b00000000000000000000000000000001 :
b00000000000000000000000000000001 ;
b00000000000000000000000000000010 =
b00000000000000000000000000000001 8
1/
1A
0-
1.
00
b01 4
b0010 B
b10000000000001110000000000010000 L
b0001 N
1O
#65
0O
#68
#70
b00111 6
b00000000000000000000000000010010 9
b00000000000000000000000000010000 :
b00000000000000000000000000000000 ;
b00000000000000000000000000010010 <
b00000000000000000000000000010010 =
b00000000000000000000000000000010 7
b00000000000000000000000000010000 8
0/
0A
0.
b11 4
b0011 B
b00111 F
b10000000000001110000000000010000 M
b00000000000000000000000000000010 J
b00000000000000000000000000000010 K
b00000000000000000000000000000101 H
b00000000000000000000000000010000 I
b010000 C
b0010 N
b00000000000000000000000000000101 S
b00000000000000000000000000000010 T
1O
#75
0O
#78
b10000000111000110000000000001111 Q
#80
b00000000000000000000000000010000 9
b00000000000000000000000000010000 <
b00000000000000000000000000010000 =
b00000000000000000000000000000000 7
1,
b10 4
b0100 B
b10000000111000110000000000001111 L
b00000000000000000000000000010010 J
b00000000000000000000000000000000 H
b0011 N
b00000000000000000000000000000000 S
1O
#85
0O
#88
#90
b00000000000000000000000000000010 9
b00000000000000000000000000000000 :
b00000000000000000000000000000010 <
b00000000000000000000000000000010 =
b00000000000000000000000000000010 7
b00000000000000000000000000000000 8
0,
12
b00 4
b0101 B
b00000000000000000000000000010000 J
b0100 N
b00000000000000000000000000010000 T
1O
#95
0O
#98
b00000000000000000000000000000011 Q
#100
1-
02
10
b0001 B
b00000000000000000000000000000011 L
b00000000000000000000000000000010 J
b0101 N
b00000000000000000000000000000010 T
1O
#105
0O
#108
b10000000111000110000000000001111 Q
#110
b00000000000000000000000000000011 *
b00000000000000000000000000000011 9
b00000000000000000000000000000001 :
b00000000000000000000000000000011 <
b00000000000000000000000000000011 =
b00000000000000000000000000000001 8
1/
1A
0-
1.
00
b01 4
b0010 B
b10000000111000110000000000001111 L
b0001 N
1O
#115
0O
#118
#120
b00011 6
b00000000000000000000000000010010 9
b00000000000000000000000000001111 :
b00000000000000000000000000000011 ;
b00000000000000000000000000001111 <
b00000000000000000000000000010010 =
b00000000000000000000000000000011 7
b00000000000000000000000000001111 8
0/
0A
0.
b11 4
b0011 B
b00111 E
b00011 F
b10000000111000110000000000001111 M
b00000000000000000000000000000011 J
b00000000000000000000000000000011 K
b00000000000000000000000000000011 H
b00000000000000000000000000001111 I
b001111 C
b0010 N
b00000000000000000000000000000011 S
b00000000000000000000000000000011 T
1O
#125
0O
#128
b00000000111000100010000000100101 Q
#130
1,
b10 4
b0100 B
b00000000111000100010000000100101 L
b00000000000000000000000000010010 J
b00000000000000000000000000000011 G
b00000000000000000000000000000000 H
b0011 N
b00000000000000000000000000000000 S
1O
#135
0O
#138
#140
b00000000000000000000000000000011 9
b00000000000000000000000000000000 :
b00000000000000000000000000000000 ;
b00000000000000000000000000000011 <
b00000000000000000000000000000011 =
b00000000000000000000000000000000 8
0,
12
b00 4
b0101 B
b0100 N
b00000000000000000000000000010010 T
1O
#145
0O
#148
b00000000000000000000000000001100 Q
#150
1-
02
10
b0001 B
b00000000000000000000000000001100 L
b00000000000000000000000000000011 J
b0101 N
b00000000000000000000000000000011 T
1O
#155
0O
#158
b00000000111000100010000000100101 Q
#160
b00000000000000000000000000001100 &
b00000000000000000000000000000100 9
b00000000000000000000000000000001 :
b00000000000000000000000000000001 ;
b00000000000000000000000000000100 =
b00000000000000000000000000000001 8
1/
1A
0-
1.
00
b01 4
b0010 B
b00000000111000100010000000100101 L
b0001 N
1O
#165
0O
#168
#170
b00010 6
b00000000000000000010000000101001 9
b00000000000000000010000000100101 :
b00000000000000000000000000000100 ;
b00000000000000000010000000100101 <
b00000000000000000010000000101001 =
b00000000000000000000000000000100 7
b00000000000000000010000000100101 8
0/
0A
0.
b11 4
b0111 B
b00010 F
b00000000111000100010000000100101 M
b00000000000000000000000000000100 J
b00000000000000000000000000000100 K
b00000000000000000000000000001100 H
b00000000000000000010000000100101 I
b100101 C
b000000 D
b0010 N
b00000000000000000000000000001100 S
b00000000000000000000000000000100 T
1O
#175
0O
#178
b00000000011001000010100000100100 Q
#180
b00000000000000000000000000000111 9
b00000000000000000000000000000101 :
b00000000000000000000000000000001 ;
b00000000000000000000000000000111 <
b00000000000000000000000000001000 =
b00000000000000000000000000000011 7
b00000000000000000000000000000101 8
b000 5
1,
b00 4
b10 ?
b1000 B
b00000000011001000010100000100100 L
b00000000000000000010000000101001 J
b00000000000000000000000000000101 H
b0111 N
b00000000000000000000000000000101 S
1O
#185
0O
#188
#190
b00100 6
b00000000000000000000000000001001 9
b00000000000000000000000000000100 ;
b00000000000000000000000000000101 <
b00000000000000000000000000001001 =
b00000000000000000000000000000100 7
b010 5
0,
10
11
b00 ?
b0001 B
b00000000000000000000000000000111 J
b1000 N
1O
#195
0O
#198
#200
b00000000000000000000000000000111 '
b00010 6
b00000000000000000000000000000101 9
b00000000000000000000000000000001 :
b00000000000000000000000000000000 ;
b00000000000000000000000000000101 =
b00000000000000000000000000000001 8
1/
1A
1.
00
01
b01 4
b0010 B
b00000000000000000000000000001001 J
b0001 N
1O
#205
0O
#208
#210
b00100 6
b00000000000000000010100000101001 9
b00000000000000000010100000100100 :
b00000000000000000000000000000100 ;
b00000000000000000010100000100101 <
b00000000000000000010100000101001 =
b00000000000000000000000000000101 7
b00000000000000000010100000100100 8
0/
0A
0.
b11 4
b0111 B
b00011 E
b00100 F
b00000000011001000010100000100100 M
b00000000000000000000000000000101 J
b00000000000000000000000000000101 K
b00000000000000000010100000100100 I
b100100 C
b0010 N
b00000000000000000000000000000101 T
1O
#215
0O
#218
b00000000101001000010100000100000 Q
#220
b00000000000000000000000000000100 9
b00000000000000000000000000000111 :
b00000000000000000000000000001111 <
b00000000000000000000000000010011 =
b00000000000000000000000000001100 7
b00000000000000000000000000000111 8
b001 5
1,
b00 4
b10 ?
b1000 B
b00000000101001000010100000100000 L
b00000000000000000010100000101001 J
b00000000000000000000000000001100 G
b00000000000000000000000000000111 H
b0111 N
b00000000000000000000000000000111 S
1O
#225
0O
#228
#230
b00101 6
b00000000000000000000000000001100 9
b00000000000000000000000000000101 ;
b00000000000000000000000000000111 <
b00000000000000000000000000001100 =
b00000000000000000000000000000101 7
b010 5
0,
10
11
b00 ?
b0001 B
b00000000000000000000000000000100 J
b1000 N
1O
#235
0O
#238
#240
b00000000000000000000000000000100 (
b00100 6
b00000000000000000000000000000110 9
b00000000000000000000000000000001 :
b00000000000000000000000000000001 ;
b00000000000000000000000000000101 <
b00000000000000000000000000000110 =
b00000000000000000000000000000001 8
1/
1A
1.
00
01
b01 4
b0010 B
b00000000000000000000000000001100 J
b0001 N
1O
#245
0O
#248
#250
b00000000000000000010100000100110 9
b00000000000000000010100000100000 :
b00000000000000000000000000000000 ;
b00000000000000000010100000100110 <
b00000000000000000010100000100110 =
b00000000000000000000000000000110 7
b00000000000000000010100000100000 8
0/
0A
0.
b11 4
b0111 B
b00101 E
b00000000101001000010100000100000 M
b00000000000000000000000000000110 J
b00000000000000000000000000000110 K
b00000000000000000010100000100000 I
b100000 C
b0010 N
b00000000000000000000000000000110 T
1O
#255
0O
#258
b00010000101001110000000000001000 Q
#260
b00000000000000000000000000001011 9
b00000000000000000000000000000111 :
b00000000000000000000000000000100 ;
b00000000000000000000000000000111 <
b00000000000000000000000000001011 =
b00000000000000000000000000000100 7
b00000000000000000000000000000111 8
1,
b00 4
b10 ?
b1000 B
b00010000101001110000000000001000 L
b00000000000000000010100000100110 J
b00000000000000000000000000000100 G
b0111 N
1O
#265
0O
#268
#270
b00101 6
b00000000000000000000000000001101 9
b00000000000000000000000000000110 ;
b00000000000000000000000000001101 =
b00000000000000000000000000000110 7
0,
10
11
b00 ?
b0001 B
b00000000000000000000000000001011 J
b1000 N
1O
#275
0O
#278
#280
b00000000000000000000000000001011 (
b00100 6
b00000000000000000000000000000111 9
b00000000000000000000000000000001 :
b00000000000000000000000000000000 ;
b00000000000000000000000000000111 =
b00000000000000000000000000000001 8
1/
1A
1.
00
01
b01 4
b0010 B
b00000000000000000000000000001101 J
b0001 N
1O
#285
0O
#288
#290
b00111 6
b00000000000000000000000000001111 9
b00000000000000000000000000001000 :
b00000000000000000000000000001111 <
b00000000000000000000000000001111 =
b00000000000000000000000000000111 7
b00000000000000000000000000001000 8
0/
0A
0.
b11 4
b1001 B
b00111 F
b00010000101001110000000000001000 M
b00000000000000000000000000000111 J
b00000000000000000000000000000111 K
b00000000000000000000000000001011 G
b00000000000000000000000000001000 I
b001000 C
b000100 D
b0010 N
b00000000000000000000000000000111 T
1O
#295
0O
#298
b00000000011001000011000000101010 Q
#300
b00000000000000000000000000001000 9
b11111111111111111111111111111100 :
b00000000000000000000000000000011 ;
b00000000000000000000000000001011 <
b00000000000000000000000000001000 =
b00000000000000000000000000001011 7
b00000000000000000000000000000011 8
1@
b110 5
1,
b01 3
b00 4
b01 ?
b0001 B
b00000000011001000011000000101010 L
b00000000000000000000000000001111 J
b00000000000000000000000000000011 H
b1001 N
b00000000000000000000000000000011 S
1O
#305
0O
#308
#310
b00000000000000000000000000000001 :
b00000000000000000000000000000001 ;
b00000000000000000000000000000111 <
b00000000000000000000000000000111 7
b00000000000000000000000000000001 8
1/
0@
1A
b010 5
0,
1.
b00 3
b01 4
b00 ?
b0010 B
b00000000000000000000000000001000 J
b0001 N
1O
#315
0O
#318
#320
b00100 6
b00000000000000000011000000110010 9
b00000000000000000011000000101010 :
b00000000000000000000000000001000 ;
b00000000000000000011000000101010 <
b00000000000000000011000000110010 =
b00000000000000000000000000001000 7
b00000000000000000011000000101010 8
0/
0A
0.
b11 4
b0111 B
b00011 E
b00100 F
b00000000011001000011000000101010 M
b00000000000000000000000000001000 K
b00000000000000000011000000101010 I
b101010 C
b000000 D
b0010 N
b00000000000000000000000000001000 T
1O
#325
0O
#328
b00010000110000000000000000000001 Q
#330
b00000000000000000000000000000000 9
b11111111111111111111111111111000 :
b00000000000000000000000000000100 ;
b00000000000000000000000000001111 <
b00000000000000000000000000000101 =
b00000000000000000000000000001100 7
b00000000000000000000000000000111 8
1+
b111 5
1,
b00 4
b10 ?
b1000 B
b00010000110000000000000000000001 L
b00000000000000000011000000110010 J
b00000000000000000000000000001100 G
b00000000000000000000000000000111 H
b0111 N
b00000000000000000000000000000111 S
1O
#335
0O
#338
#340
b00110 6
b00000000000000000000000000001111 9
b00000000000000000000000000000111 :
b00000000000000000000000000000000 ;
b00000000000000000000000000001111 =
b00000000000000000000000000001000 7
0+
b010 5
0,
10
11
b00 ?
b0001 B
b00000000000000000000000000000000 J
b1000 N
1O
#345
0O
#348
#350
b00100 6
b00000000000000000000000000001001 9
b00000000000000000000000000000001 :
b00000000000000000000000000001001 <
b00000000000000000000000000001001 =
b00000000000000000000000000000001 8
1/
1A
1.
00
01
b01 4
b0010 B
b00000000000000000000000000001111 J
b0001 N
1O
#355
0O
#358
#360
b00000 6
b00000000000000000000000000001010 9
b00000000000000000000000000000001 ;
b00000000000000000000000000001010 =
b00000000000000000000000000001001 7
0/
0A
0.
b11 4
b1001 B
b00110 E
b00000 F
b00010000110000000000000000000001 M
b00000000000000000000000000001001 J
b00000000000000000000000000001001 K
b00000000000000000000000000000001 I
b000001 C
b000100 D
b0010 N
b00000000000000000000000000001001 T
1O
#365
0O
#368
b10000000000001010000000000000000 Q
#370
b00000000000000000000000000000000 9
b11111111111111111111111111111111 :
b00000000000000000000000000000000 ;
b00000000000000000000000000000000 <
b00000000000000000000000000000000 =
b00000000000000000000000000000000 7
b00000000000000000000000000000000 8
1+
1/
1@
b110 5
1,
b01 3
b00 4
b01 ?
b0001 B
b10000000000001010000000000000000 L
b00000000000000000000000000001010 J
b00000000000000000000000000000000 G
b00000000000000000000000000000000 H
b1001 N
b00000000000000000000000000000000 S
1O
#375
0O
#378
#380
b00000000000000000000000000001011 9
b00000000000000000000000000000001 :
b00000000000000000000000000001011 <
b00000000000000000000000000001011 =
b00000000000000000000000000001010 7
b00000000000000000000000000000001 8
0+
0@
1A
b010 5
0,
1.
b00 3
b01 4
b00 ?
b0010 B
b00000000000000000000000000000000 J
b00000000000000000000000000001010 K
b0001 N
b00000000000000000000000000001010 T
1O
#385
0O
#388
b00000000111000100011000000101010 Q
#390
b00010 6
b00000000000000000011000000110101 9
b00000000000000000011000000101010 :
b00000000000000000000000000001010 ;
b00000000000000000011000000101011 <
b00000000000000000011000000110101 =
b00000000000000000000000000001011 7
b00000000000000000011000000101010 8
0/
0A
0.
b11 4
b0111 B
b00000000111000100011000000101010 L
b00111 E
b00010 F
b00000000111000100011000000101010 M
b00000000000000000000000000001011 J
b00000000000000000000000000001011 K
b00000000000000000011000000101010 I
b101010 C
b000000 D
b0010 N
b00000000000000000000000000001011 T
1O
#395
0O
#398
b00000000110001010011100000100000 Q
#400
b00000000000000000000000000000001 9
b11111111111111111111111111111010 :
b00000000000000000000000000000001 ;
b00000000000000000000000000000111 <
b11111111111111111111111111111110 =
b00000000000000000000000000000001 >
b00000000000000000000000000000011 7
b00000000000000000000000000000101 8
b111 5
1,
b00 4
b10 ?
b1000 B
b00000000110001010011100000100000 L
b00000000000000000011000000110101 J
b00000000000000000000000000000011 G
b00000000000000000000000000000101 H
b0111 N
b00000000000000000000000000000101 S
1O
#405
0O
#408
#410
b00110 6
b00000000000000000000000000010000 9
b00000000000000000000000000000101 :
b00000000000000000000000000001111 <
b00000000000000000000000000010000 =
b00000000000000000000000000000000 >
b00000000000000000000000000001011 7
b010 5
0,
10
11
b00 ?
b0001 B
b00000000000000000000000000000001 J
b1000 N
1O
#415
0O
#418
#420
b00000000000000000000000000000001 )
b00010 6
b00000000000000000000000000001100 9
b00000000000000000000000000000001 :
b00000000000000000000000000001011 <
b00000000000000000000000000001100 =
b00000000000000000000000000000001 8
1/
1A
1.
00
01
b01 4
b0010 B
b00000000000000000000000000010000 J
b0001 N
1O
#425
0O
#428
#430
b00101 6
b00000000000000000011100000101100 9
b00000000000000000011100000100000 :
b00000000000000000000000000000000 ;
b00000000000000000011100000101100 <
b00000000000000000011100000101100 =
b00000000000000000000000000001100 7
b00000000000000000011100000100000 8
0/
0A
0.
b11 4
b0111 B
b00110 E
b00101 F
b00000000110001010011100000100000 M
b00000000000000000000000000001100 J
b00000000000000000000000000001100 K
b00000000000000000011100000100000 I
b100000 C
b0010 N
b00000000000000000000000000001100 T
1O
#435
0O
#438
b00000000111000100011100000100010 Q
#440
b00000000000000000000000000001100 9
b00000000000000000000000000001011 :
b00000000000000000000000000000001 ;
b00000000000000000000000000001011 <
b00000000000000000000000000001100 =
b00000000000000000000000000000001 7
b00000000000000000000000000001011 8
1,
b00 4
b10 ?
b1000 B
b00000000111000100011100000100010 L
b00000000000000000011100000101100 J
b00000000000000000000000000000001 G
b00000000000000000000000000001011 H
b0111 N
b00000000000000000000000000001011 S
1O
#445
0O
#448
#450
b00111 6
b00000000000000000000000000010111 9
b00000000000000000000000000001000 ;
b00000000000000000000000000001111 <
b00000000000000000000000000010111 =
b00000000000000000000000000001100 7
0,
10
11
b00 ?
b0001 B
b00000000000000000000000000001100 J
b1000 N
1O
#455
0O
#458
#460
b00000000000000000000000000001100 *
b00101 6
b00000000000000000000000000001101 9
b00000000000000000000000000000001 :
b00000000000000000000000000000000 ;
b00000000000000000000000000001101 <
b00000000000000000000000000001101 =
b00000000000000000000000000000001 8
1/
1A
1.
00
01
b01 4
b0010 B
b00000000000000000000000000010111 J
b0001 N
1O
#465
0O
#468
#470
b00010 6
b00000000000000000011100000101111 9
b00000000000000000011100000100010 :
b00000000000000000011100000101111 <
b00000000000000000011100000101111 =
b00000000000000000000000000001101 7
b00000000000000000011100000100010 8
0/
0A
0.
b11 4
b0111 B
b00111 E
b00010 F
b00000000111000100011100000100010 M
b00000000000000000000000000001101 J
b00000000000000000000000000001101 K
b00000000000000000011100000100010 I
b100010 C
b0010 N
b00000000000000000000000000001101 T
1O
#475
0O
#478
b00001000000000000000000000001111 Q
#480
b00000000000000000000000000000111 9
b11111111111111111111111111111010 :
b00000000000000000000000000000100 ;
b00000000000000000000000000001101 <
b00000000000000000000000000000111 =
b00000000000000000000000000001100 7
b00000000000000000000000000000101 8
b110 5
1,
b00 4
b10 ?
b1000 B
b00001000000000000000000000001111 L
b00000000000000000011100000101111 J
b00000000000000000000000000001100 G
b00000000000000000000000000000101 H
b0111 N
b00000000000000000000000000000101 S
1O
#485
0O
#488
#490
b00111 6
b00000000000000000000000000010010 9
b00000000000000000000000000000101 :
b00000000000000000000000000000101 ;
b00000000000000000000000000010010 =
b00000000000000000000000000001101 7
b010 5
0,
10
11
b00 ?
b0001 B
b00000000000000000000000000000111 J
b1000 N
1O
#495
0O
#498
#500
b00000000000000000000000000000111 *
b00010 6
b00000000000000000000000000001110 9
b00000000000000000000000000000001 :
b00000000000000000000000000000001 ;
b00000000000000000000000000001110 =
b00000000000000000000000000000001 8
1/
1A
1.
00
01
b01 4
b0010 B
b00000000000000000000000000010010 J
b0001 N
1O
#505
0O
#508
#510
b00000 6
b00000000000000000000000000011101 9
b00000000000000000000000000001111 :
b00000000000000000000000000001110 ;
b00000000000000000000000000001111 <
b00000000000000000000000000011101 =
b00000000000000000000000000001110 7
b00000000000000000000000000001111 8
0/
0A
0.
b11 4
b1010 B
b00000 E
b00000 F
b00001000000000000000000000001111 M
b00000000000000000000000000001110 J
b00000000000000000000000000001110 K
b00000000000000000000000000000111 G
b00000000000000000000000000001111 I
b001111 C
b000010 D
b0010 N
b00000000000000000000000000001110 T
1O
#515
0O
#518
b10000000000001110000000000000000 Q
#520
b00000000000000000000000000001110 9
b00000000000000000000000000000000 :
b00000000000000000000000000000000 ;
b00000000000000000000000000001110 <
b00000000000000000000000000001110 =
b00000000000000000000000000000000 8
1/
1A
b10 3
b00 4
b0001 B
b10000000000001110000000000000000 L
b00000000000000000000000000011101 J
b00000000000000000000000000000000 G
b00000000000000000000000000000000 H
b1010 N
b00000000000000000000000000000000 S
1O
#525
0O
#528
#530
b00000000000000000000000000010000 9
b00000000000000000000000000000001 :
b00000000000000000000000000000001 ;
b00000000000000000000000000001111 <
b00000000000000000000000000010000 =
b00000000000000000000000000001111 7
b00000000000000000000000000000001 8
1.
b00 3
b01 4
b0010 B
b00000000000000000000000000001110 J
b00000000000000000000000000001111 K
b0001 N
b00000000000000000000000000001111 T
1O
#535
0O
#538
b10100000010001110000000000001110 Q
#540
b00111 6
b00000000000000000000000000011110 9
b00000000000000000000000000001110 :
b00000000000000000000000000000000 ;
b00000000000000000000000000011110 <
b00000000000000000000000000011110 =
b00000000000000000000000000010000 7
b00000000000000000000000000001110 8
0/
0A
0.
b11 4
b0011 B
b10100000010001110000000000001110 L
b00010 E
b00111 F
b10100000010001110000000000001110 M
b00000000000000000000000000010000 J
b00000000000000000000000000010000 K
b00000000000000000000000000001110 I
b001110 C
b101000 D
b0010 N
b00000000000000000000000000010000 T
1O
#545
0O
#548
b00000000000000000000000000000011 Q
#550
b00000000000000000000000000010011 9
b00000000000000000000000000000100 ;
b00000000000000000000000000001111 <
b00000000000000000000000000010011 =
b00000000000000000000000000000101 7
1,
b10 4
b0110 B
b00000000000000000000000000000011 L
b00000000000000000000000000011110 J
b00000000000000000000000000000101 G
b00000000000000000000000000000111 H
b0011 N
b00000000000000000000000000000111 S
1O
#555
0O
#558
#560
b00000000000000000000000000010111 9
b00000000000000000000000000000111 :
b00000000000000000000000000000000 ;
b00000000000000000000000000010111 <
b00000000000000000000000000010111 =
b00000000000000000000000000010000 7
b00000000000000000000000000000111 8
0,
12
b00 4
b0001 B
b00000000000000000000000000010011 J
b0110 N
b00000000000000000000000000010011 T
1O
1R
#565
0O
#568
b00000000000000000000000000000000 Q
#570
b00000000000000000000000000010001 9
b00000000000000000000000000000001 :
b00000000000000000000000000010001 <
b00000000000000000000000000010001 =
b00000000000000000000000000000001 8
1/
1A
1.
02
b01 4
b0010 B
b00000000000000000000000000000000 L
b00000000000000000000000000010111 J
b0001 N
b00000000000000000000000000010000 T
1O
0R
#575
0O
#578
b00000000000000000000000000000011 Q
