submodules/Datapath/submodules/ALU/trace/trace.vcd
$version Generated by VerilatedVcd $end
$date Fri Mar 30 14:04:18 2018
 $end
$timescale 1ns $end

 $scope module TOP $end
  $var wire 32 & i_a [31:0] $end
  $var wire  3 ( i_alucontrol [2:0] $end
  $var wire 32 ' i_b [31:0] $end
  $var wire 32 ) o_result [31:0] $end
  $var wire  1 * o_zero $end
  $scope module v $end
   $var wire 32 - WIDTH [31:0] $end
   $var wire 32 + andresult [31:0] $end
   $var wire 32 # b2 [31:0] $end
   $var wire 32 & i_a [31:0] $end
   $var wire  3 ( i_alucontrol [2:0] $end
   $var wire 32 ' i_b [31:0] $end
   $var wire 32 ) o_result [31:0] $end
   $var wire  1 * o_zero $end
   $var wire 32 , orresult [31:0] $end
   $var wire 32 % sltresult [31:0] $end
   $var wire 32 $ sumresult [31:0] $end
  $upscope $end
 $upscope $end
$enddefinitions $end


#15
b00000000000000000000000000000001 #
b00000000000000000000000000000010 $
b00000000000000000000000000000000 %
b00000000000000000000000000000001 &
b00000000000000000000000000000001 '
b010 (
b00000000000000000000000000000010 )
0*
b00000000000000000000000000000001 +
b00000000000000000000000000000001 ,
b00000000000000000000000000100000 -
#25
b00000000000000000000000000000000 #
b00000000000000000000000000000001 $
b00000000000000000000000000000000 '
b00000000000000000000000000000001 )
b00000000000000000000000000000000 +
#35
b00000000000000000000000000000001 #
b00000000000000000000000000000000 &
b00000000000000000000000000000001 '
#45
b11111111111111111111111111111111 #
b00000000000000000000000000000001 &
b00000000000000000000000000000000 '
b110 (
#55
b00000000000000000000000000000101 $
b00000000000000000000000000000101 &
b00000000000000000000000000000101 )
b00000000000000000000000000000101 ,
#65
b11111111111111111111111111111101 #
b00000000000000000000000000000011 $
b00000000000000000000000000000010 '
b00000000000000000000000000000011 )
b00000000000000000000000000000111 ,
#75
b11111111111111111111111111111110 #
b11111111111111111111111111111111 $
b00000000000000000000000000000001 %
b00000000000000000000000000000000 &
b00000000000000000000000000000001 '
b11111111111111111111111111111111 )
b00000000000000000000000000000001 ,
#85
b00000000000000000000000000000000 $
b00000000000000000000000000000000 %
b00000000000000000000000000000001 &
b111 (
b00000000000000000000000000000000 )
1*
b00000000000000000000000000000001 +
#95
b11111111111111111111111111111111 #
b00000000000000000000000000000001 $
b00000000000000000000000000000000 '
b00000000000000000000000000000000 +
#105
b11111111111111111111111111111101 #
b11111111111111111111111111111111 $
b00000000000000000000000000000001 %
b00000000000000000000000000000010 '
b00000000000000000000000000000001 )
0*
b00000000000000000000000000000011 ,
#115
b00000000000000000000000000010100 #
b00000000000000000000000000011010 $
b00000000000000000000000000000000 %
b00000000000000000000000000000110 &
b00000000000000000000000000010100 '
b000 (
b00000000000000000000000000000100 )
b00000000000000000000000000000100 +
b00000000000000000000000000010110 ,
#125
b00000000000000000000000000000101 #
b00000000000000000000000000001111 $
b00000000000000000000000000001010 &
b00000000000000000000000000000101 '
b001 (
b00000000000000000000000000001111 )
b00000000000000000000000000000000 +
b00000000000000000000000000001111 ,
